<?xml version="1.0" encoding="utf-8"?>
<!-- Generator: Adobe Illustrator 16.0.0, SVG Export Plug-In . SVG Version: 6.00 Build 0)  -->
<!DOCTYPE svg PUBLIC "-//W3C//DTD SVG 1.1//EN" "http://www.w3.org/Graphics/SVG/1.1/DTD/svg11.dtd">
<svg version="1.1" id="Livello_1" xmlns="http://www.w3.org/2000/svg" xmlns:xlink="http://www.w3.org/1999/xlink" x="0px" y="0px"
	 width="34.016px" height="34.016px" viewBox="0 0 34.016 34.016" enable-background="new 0 0 34.016 34.016" xml:space="preserve">
<g>
	<path d="M17.006,16.613c3.074,0,5.574-2.501,5.574-5.574c0-3.074-2.5-5.574-5.574-5.574s-5.574,2.5-5.574,5.574
		C11.432,14.112,13.932,16.613,17.006,16.613z M17.006,6.464c2.523,0,4.574,2.052,4.574,4.574s-2.051,4.574-4.574,4.574
		c-2.521,0-4.574-2.052-4.574-4.574S14.485,6.464,17.006,6.464z"/>
	<path d="M20.559,18.672h-0.662l-0.209,0.046c-1.695,0.779-3.65,0.783-5.363,0l-0.871-0.046c-3.213,0-5.826,2.614-5.826,5.829v1.648
		c0,1.324,1.078,2.402,2.402,2.402h13.955c1.326,0,2.404-1.078,2.404-2.402v-1.648C26.389,21.286,23.774,18.672,20.559,18.672z
		 M25.389,26.15c0,0.773-0.631,1.402-1.404,1.402H10.03c-0.773,0-1.402-0.629-1.402-1.402v-1.648c0-2.663,2.164-4.829,4.826-4.829
		h0.557c1.914,0.843,4.094,0.839,5.994,0h0.555c2.664,0,4.83,2.166,4.83,4.829V26.15z"/>
</g>
</svg>
