<?xml version="1.0" encoding="utf-8"?>
<!-- Generator: Adobe Illustrator 16.0.0, SVG Export Plug-In . SVG Version: 6.00 Build 0)  -->
<!DOCTYPE svg PUBLIC "-//W3C//DTD SVG 1.1//EN" "http://www.w3.org/Graphics/SVG/1.1/DTD/svg11.dtd">
<svg version="1.1" id="Livello_1" xmlns="http://www.w3.org/2000/svg" xmlns:xlink="http://www.w3.org/1999/xlink" x="0px" y="0px"
	 width="34.016px" height="34.016px" viewBox="0 0 34.016 34.016" enable-background="new 0 0 34.016 34.016" xml:space="preserve">
<g>
	<polygon fill="#231F20" points="26.95,14.629 26.95,10.397 25.95,10.397 25.95,14.629 21.718,14.629 21.718,15.628 25.95,15.628 
		25.95,19.861 26.95,19.861 26.95,15.628 31.181,15.628 31.181,14.629 	"/>
	<circle fill="#231F20" cx="11.716" cy="11.038" r="5.074"/>
	<path fill="#231F20" d="M15.269,19.172h-0.663c-0.88,0.403-1.859,0.634-2.89,0.634c-1.031,0-2.007-0.23-2.891-0.634H8.163
		c-2.941,0-5.328,2.386-5.328,5.329v1.648c0,1.051,0.852,1.902,1.902,1.902h13.955c1.051,0,1.904-0.852,1.904-1.902v-1.648
		C20.597,21.558,18.21,19.172,15.269,19.172z"/>
</g>
</svg>
